[
  {
    "outputFileName": "wwwroot/view-resources/Views/_Bundles/shared-layout.min.css",
    "inputFiles": [
      "wwwroot/lib/bootstrap/dist/css/bootstrap.css",
      "wwwroot/lib/bootstrap-select/dist/css/bootstrap-select.css",
      "wwwroot/lib/famfamfam-flags/dist/sprite/famfamfam-flags.css",
      "wwwroot/lib/Waves/dist/waves.css",
      "wwwroot/sass/site.css"
    ]
  },
  {
    "outputFileName": "wwwroot/view-resources/Views/_Bundles/shared-layout.min.js",
    "inputFiles": [
      "wwwroot/lib/jquery/dist/jquery.js",
      "wwwroot/lib/bootstrap/dist/js/bootstrap.js",
      "wwwroot/lib/jquery-validation/dist/jquery.validate.js",
      "wwwroot/lib/toastr/toastr.js",
      "wwwroot/lib/sweetalert/dist/sweetalert.min.js",
      "wwwroot/lib/jquery-slimscroll/jquery.slimscroll.js",
      "wwwroot/lib/waves/dist/waves.js",
      "wwwroot/lib/abp-web-resources/Abp/Framework/scripts/abp.js",
      "wwwroot/lib/abp-web-resources/Abp/Framework/scripts/libs/abp.jquery.js",
      "wwwroot/lib/abp-web-resources/Abp/Framework/scripts/libs/abp.toastr.js",
      "wwwroot/lib/abp-web-resources/Abp/Framework/scripts/libs/abp.blockUI.js",
      "wwwroot/lib/abp-web-resources/Abp/Framework/scripts/libs/abp.spin.js",
      "wwwroot/lib/abp-web-resources/Abp/Framework/scripts/libs/abp.sweet-alert.js",
      "wwwroot/js/site.js"
    ]
  }
]
